{
  "idling": {
	"dependees": [
	  "not_moving"
	],
	"type": "regular",
	"value": true
  },
  "jumping": {
	"dependees": [
	  "moving"
	],
	"type": "regular",
	"value": false
  },
  "moving": {
	"dependees": [
	  "or_wrj"
	],
	"type": "regular",
	"value": false
  },
  "not_moving": {
	"dependees": [
	  "moving"
	],
	"type": "not",
	"value": true
  },
  "or_wrj": {
	"dependees": [
	  "walking",
	  "running",
	  "jumping"
	],
	"type": "or",
	"value": false
  },
  "running": {
	"dependees": [
	  "moving"
	],
	"type": "regular",
	"value": false
  },
  "walking": {
	"dependees": [
	  "moving"
	],
	"type": "regular",
	"value": false
  }
}
